[
    {
        "ID": "sshd",
        "Name": "/usr/sbin/sshd",
        "Args": [
            "-D"
        ]
    },
    {
        "ID": "nginx",
        "Name": "/usr/sbin/nginx",
        "Args": [
            "-g",
            "daemon off;"
        ]
    }
]